Scraping Google News with 'rvest' | ALLAN V. C. QUADROS
…
# finding the smallest vector
min <- min(sapply(list(vehicle_all, time_all, headline_all), length))

# cutting
vehicle_all <- vehicle_all[1:min]
time_all <- time_all[1:min]
headline_all <- headline_all[1:min]

And we have our final data frame:

df_news <- data_frame(vehicle_all, time_all, headline_all)

df_news

## # A tibble: 166 x 3
##    vehicle_all      time_all   headline_all                               
##    <chr>            <chr>      <chr>                                      
##  1 CNN              2 hours a… The 'lonely' President: How Trump spent hi…
##  2 Fox News         4 hours a… Trump tells congressional leaders to retur…
##  3 The Washington … 2 hours a… Trump falsely claims Mexico is paying for …
##  4 The New York Ti… today      Trump’s Shutdown Is Not About Border Secur…
##  5 Opinion          today      Doug Schoen: Democrats have Trump backed i…
##  6 Opinion          3 hours a… Romney says he won't run against Trump in …
##  7 Fox News         2 hours a… Mitt Romney details what bothers him about…
##  8 Opinion          4 hours a… Trump fires back at Mitt Romney for scathi…
##  9 Opinion          today      Mitt Romney’s Counterproductive Op-Ed      
## 10 POLITICO         one hour … Mitt Romney vs. Donald Trump: If Utah’s Ne…
## # ... with 156 more rows
…
