…
times[1:10]

##  [1] "3 hours ago"  "5 hours ago"  "4 hours ago"  "2 hours ago"  "1 hour ago"  
##  [6] "4 hours ago"  "3 hours ago"  "9 hours ago"  "11 hours ago" "11 hours ago"

It seems all good!

Then, we can proceed to generate our final tibble:

tb_news <- tibble(headlines, vehicles, times)

tb_news

## # A tibble: 55 x 3
##    headlines                                           vehicles        times    
##    <chr>                                               <chr>           <chr>    
##  1 Trump announces pardon for Michael Flynn in tweet   CNN             3 hours …
##  2 Trump grants Michael Flynn a full pardon            Fox News        5 hours …
##  3 President Trump pardons former National Security A… CNN             4 hours …
##  4 Andrew McCarthy: Trump’s Flynn pardon justified — … Fox News        2 hours …
##  5 Trump’s pardon of Michael Flynn is a parting disgr… The Washington… 1 hour a…
##  6 Trump rants about overturning the election even as… CNBC            4 hours …
##  7 Trump's outcasts in the civil and foreign service … CNN             3 hours …
##  8 New New York travel restrictions take effect, NJ a… Yahoo News      9 hours …
##  9 Ben Shapiro: Why Biden's 'return to normalcy' is g… Fox News        11 hours…
## 10 Biden soars as leader of the free world | TheHill   The Hill        11 hours…
## # … with 45 more rows
…
