Scrapping Google News with 'rvest' | ALLAN V. C. QUADROS
…
df_news <- data_frame(veiculo_all, tempo_all, nome_all)

In this last case we used a regular expression (REGEX) to clean the data by separating the actual headline phrases from the complementary phrases. In some cases we have a phrase ending in uppercase letters such as “SP” collapsed with other phrase initiating with another uppercase letter such as “A” for example. We have to think of a better way to split these cases, but the current result is quite satisfactory for now.

And we have our final data frame:

df_news

## # A tibble: 137 x 3
##    veiculo_all        tempo_all   nome_all                                
##    <chr>              <chr>       <chr>                                   
##  1 Diário do Centro … hoje        Fim da agulha? Aplicativo promete detec…
##  2 G1                 5 horas at… Infestação do mosquito da dengue preocu…
##  3 UOL                ontem       Mais de 30 municípios sergipanos estão …
##  4 Money Times        hoje        Cândido Mota está em situação de risco …
##  5 Jornal O Globo     hoje        Estudo mostra 40,7% dos municípios mine…
##  6 G1                 hoje        Teste permite detectar câncer em 10 min…
##  7 UOL                hoje        Febre amarela: Com baixa procura por va…
##  8 Estadão            hoje        Manchester United x Arsenal: como assis…
##  9 G1                 hoje        Manchester United e Arsenal empatam em …
## 10 VEJA.com           hoje        Ídolo do Arsenal sobre Sanchéz: 'Parece…
## # ... with 127 more rows
…
