Scraping Google News with 'rvest' | ALLAN V. C. QUADROS
…
# finding the smallest vector
min <- min(sapply(list(vehicle_all, time_all, headline_all), length))

# cutting
vehicle_all <- vehicle_all[1:min]
time_all <- time_all[1:min]
headline_all <- headline_all[1:min]

And we have our final data frame:

df_news <- data_frame(vehicle_all, time_all, headline_all)

df_news

## # A tibble: 139 x 3
##    vehicle_all       time_all   headline_all                              
##    <chr>             <chr>      <chr>                                     
##  1 G1                hoje       Congresso começa a votar Previdência 'com…
##  2 UOL               ontem      É forte a tendência de a reforma da Previ…
##  3 Brasil 247        hoje       "Miriam Leitão diz que 'fatiar' reforma d…
##  4 Jornal O Globo    hoje       A reforma não pode esperar                
##  5 InfoMoney         hoje       Dividir para conquistar? Fatiamento da Pr…
##  6 Folha de S.Paulo  5 horas a… Câmara aprova fim de punição para municíp…
##  7 G1                hoje       Câmara aprova permissão para municípios e…
##  8 Estadão           4 horas a… Câmara libera gastos com pessoal em munic…
##  9 Jornal Cruzeiro … 2 horas a… Deputados autorizam municípios a gastarem…
## 10 UOL               5 horas a… Câmara aprova projeto que permite a munic…
## # ... with 129 more rows
…
