Scraping Google News with 'rvest'
…
times[1:10]

##  [1] "8 hours ago"  "9 hours ago"  "9 hours ago"  "8 hours ago"  "10 hours ago"
##  [6] "3 hours ago"  "20 hours ago" "19 hours ago" "11 hours ago" "11 hours ago"

It seems all good!

Then, we can proceed to generate our final tibble:

tb_news <- tibble(headlines, vehicles, times)

tb_news

## # A tibble: 47 x 3
##    headlines                                            vehicles       times    
##    <chr>                                                <chr>          <chr>    
##  1 Judge Orders Government to Fully Reinstate DACA Pro… The New York … 8 hours …
##  2 Federal judge orders restoration of DACA program     CBS News       9 hours …
##  3 Federal court restores DACA program, orders DHS to … Fox News       9 hours …
##  4 Judge Orders Trump Administration To Restore DACA A… NPR            8 hours …
##  5 Federal judge reinstates DACA, orders Homeland Secu… Yahoo News     10 hours…
##  6 Newsom’s stay-home order set to take effect in SoCa… KTLA Los Ange… 3 hours …
##  7 California's Stay-at-Home Orders: What to Know Abou… The New York … 20 hours…
##  8 California's Stay-at-Home Order Explained As Gov. N… Newsweek       19 hours…
##  9 Newsom faces backlash for closing playgrounds in ne… Los Angeles T… 11 hours…
## 10 Map: California's 5 regions that could fall under s… SF Gate        11 hours…
## # … with 37 more rows
…
